{
  "page": 1,
  "total_results": 19807,
  "total_pages": 991,
  "results": [{
    "vote_count": 86,
    "id": 297802,
    "video": false,
    "vote_average": 6.1,
    "title": "Aquaman",
    "popularity": 331.348,
    "poster_path": "\/ydUpl3QkVUCHCq1VWvo2rW4Sf7y.jpg",
    "original_language": "en",
    "original_title": "Aquaman",
    "genre_ids": [28, 14, 878, 12, 10749],
    "backdrop_path": "\/9QusGjxcYvfPD1THg6oW3RLeNn7.jpg",
    "adult": false,
    "overview": "The film reveals the origin story of half-human, half-Atlantean Arthur Curry and takes him on the journey of his lifetime—one that will not only force him to face who he really is, but to discover if he is worthy of who he was born to be… a king.",
    "release_date": "2018-12-21"
  }, {
    "vote_count": 3089,
    "id": 335983,
    "video": false,
    "vote_average": 6.5,
    "title": "Venom",
    "popularity": 315.184,
    "poster_path": "\/2uNW4WbgBXL25BAbXGLnLqX71Sw.jpg",
    "original_language": "en",
    "original_title": "Venom",
    "genre_ids": [878],
    "backdrop_path": "\/VuukZLgaCrho2Ar8Scl9HtV3yD.jpg",
    "adult": false,
    "overview": "Eddie Brock is a reporter—investigating people who want to go unnoticed. But after he makes a terrible discovery at the Life Foundation, he begins to transform into ‘Venom’.  The Foundation has discovered creatures called symbiotes, and believes they’re the key to the next step in human evolution. Unwittingly bonded with one, Eddie discovers he has incredible new abilities—and a voice in his head that’s telling him to embrace the darkness.",
    "release_date": "2018-10-05"
  }, {
    "vote_count": 2066,
    "id": 338952,
    "video": false,
    "vote_average": 7,
    "title": "Fantastic Beasts: The Crimes of Grindelwald",
    "popularity": 262.894,
    "poster_path": "\/uyJgTzAsp3Za2TaPiZt2yaKYRIR.jpg",
    "original_language": "en",
    "original_title": "Fantastic Beasts: The Crimes of Grindelwald",
    "genre_ids": [10751, 14, 12],
    "backdrop_path": "\/xgbeBCjmFpRYHDF7tQ7U98EREWp.jpg",
    "adult": false,
    "overview": "Gellert Grindelwald has escaped imprisonment and has begun gathering followers to his cause—elevating wizards above all non-magical beings. The only one capable of putting a stop to him is the wizard he once called his closest friend, Albus Dumbledore. However, Dumbledore will need to seek help from the wizard who had thwarted Grindelwald once before, his former student Newt Scamander, who agrees to help, unaware of the dangers that lie ahead. Lines are drawn as love and loyalty are tested, even among the truest friends and family, in an increasingly divided wizarding world.",
    "release_date": "2018-11-16"
  }, {
    "vote_count": 70,
    "id": 428078,
    "video": false,
    "vote_average": 6.1,
    "title": "Mortal Engines",
    "popularity": 185.097,
    "poster_path": "\/uXJVpPXxZO4L8Rz3IG1Y8XvZJcg.jpg",
    "original_language": "en",
    "original_title": "Mortal Engines",
    "genre_ids": [878],
    "backdrop_path": "\/rxYG6Sj95as9rv9wKIHUx6ATWd3.jpg",
    "adult": false,
    "overview": "Set in a world many thousands of years in the future. Earth’s cities now roam the globe on huge wheels, devouring each other in a struggle for ever diminishing resources. On one of these massive Traction Cities, Tom Natsworthy has an unexpected encounter with a mysterious young woman from the Outlands who will change the course of his life forever.",
    "release_date": "2018-12-14"
  }, {
    "vote_count": 1126,
    "id": 346910,
    "video": false,
    "vote_average": 5.2,
    "title": "The Predator",
    "popularity": 144.196,
    "poster_path": "\/wMq9kQXTeQCHUZOG4fAe5cAxyUA.jpg",
    "original_language": "en",
    "original_title": "The Predator",
    "genre_ids": [878, 28, 53, 12],
    "backdrop_path": "\/f4E0ocYeToEuXvczZv6QArrMDJ.jpg",
    "adult": false,
    "overview": "When a kid accidentally triggers the universe's most lethal hunters' return to Earth, only a ragtag crew of ex-soldiers and a disgruntled female scientist can prevent the end of the human race.",
    "release_date": "2018-09-14"
  }, {
    "vote_count": 255,
    "id": 407436,
    "video": false,
    "vote_average": 6.8,
    "title": "Mowgli: Legend of the Jungle",
    "popularity": 129.401,
    "poster_path": "\/clRnzMsFoMIdC7I5JsG6dnnHH8l.jpg",
    "original_language": "en",
    "original_title": "Mowgli: Legend of the Jungle",
    "genre_ids": [12, 18],
    "backdrop_path": "\/2CECgwgaqfrkBigDe7ZadUhE2td.jpg",
    "adult": false,
    "overview": "A human child raised by wolves, must face off against a menacing tiger named Shere Khan, as well as his own origins.",
    "release_date": "2018-11-29"
  }, {
    "vote_count": 52,
    "id": 523873,
    "video": false,
    "vote_average": 4.4,
    "title": "Kung Fu League",
    "popularity": 125.225,
    "poster_path": "\/rW0A73hjzPWVwADlCTLnjLhAFLX.jpg",
    "original_language": "zh",
    "original_title": "功夫联盟",
    "genre_ids": [28, 35],
    "backdrop_path": "\/blv65adWsJQZ5Iog0OU5opVf6Oa.jpg",
    "adult": false,
    "overview": "Martial arts comedy following a group of kung fu legends banding together to take on the bad guys. The legends includes VINCENT ZHAO reprising his role as ‘Wong Fei Hung’ with DENNIS TO once again portraying ‘Wing Chun’ master ‘Ip Man’, DANNY CHAN KWOK KWAN as ‘Chen Zhen’ and ANDY ON as master ‘Huo Yuan Jia’.",
    "release_date": "2018-10-19"
  }, {
    "vote_count": 435,
    "id": 484247,
    "video": false,
    "vote_average": 6.4,
    "title": "A Simple Favor",
    "popularity": 121.859,
    "poster_path": "\/aIYsjQM0piKc0ibPBCTWv3sqshj.jpg",
    "original_language": "en",
    "original_title": "A Simple Favor",
    "genre_ids": [53, 80, 9648],
    "backdrop_path": "\/xXGNyEG2v48q0bVR4AH4Vca2yvy.jpg",
    "adult": false,
    "overview": "Mommy vlogger Stephanie joins her best friend Emily’s husband, Sean, to investigate her sudden disappearance from their small town.",
    "release_date": "2018-09-14"
  }, {
    "vote_count": 2335,
    "id": 424694,
    "video": false,
    "vote_average": 8.2,
    "title": "Bohemian Rhapsody",
    "popularity": 117.247,
    "poster_path": "\/lHu1wtNaczFPGFDTrjCSzeLPTKN.jpg",
    "original_language": "en",
    "original_title": "Bohemian Rhapsody",
    "genre_ids": [18, 10402],
    "backdrop_path": "\/pbXgLEYh8rlG2Km5IGZPnhcnuSz.jpg",
    "adult": false,
    "overview": "Singer Freddie Mercury, guitarist Brian May, drummer Roger Taylor and bass guitarist John Deacon take the music world by storm when they form the rock 'n' roll band Queen in 1970. Hit songs become instant classics. When Mercury's increasingly wild lifestyle starts to spiral out of control, Queen soon faces its greatest challenge yet – finding a way to keep the band together amid the success and excess.",
    "release_date": "2018-11-02"
  }, {
    "vote_count": 250,
    "id": 375588,
    "video": false,
    "vote_average": 6,
    "title": "Robin Hood",
    "popularity": 113.935,
    "poster_path": "\/AiRfixFcfTkNbn2A73qVJPlpkUo.jpg",
    "original_language": "en",
    "original_title": "Robin Hood",
    "genre_ids": [12, 28],
    "backdrop_path": "\/AuA50D7T7S7OEVcGo0ZKaMhERn0.jpg",
    "adult": false,
    "overview": "A war-hardened Crusader and his Moorish commander mount an audacious revolt against the corrupt English crown.",
    "release_date": "2018-11-21"
  }, {
    "vote_count": 306,
    "id": 454293,
    "video": false,
    "vote_average": 6.2,
    "title": "Night School",
    "popularity": 112.424,
    "poster_path": "\/1NSMAaBPSbWv7sGmF8oLGMNb8Qm.jpg",
    "original_language": "en",
    "original_title": "Night School",
    "genre_ids": [35],
    "backdrop_path": "\/rkTHU1gkIOZ7CZEEVWJwcEY8nde.jpg",
    "adult": false,
    "overview": "Teddy Walker is a successful salesman whose life takes an unexpected turn when he accidentally blows up his place of employment. Forced to attend night school to get his GED, Teddy soon finds himself dealing with a group of misfit students, his former high school nemesis and a feisty teacher who doesn't think he's too bright.",
    "release_date": "2018-09-28"
  }, {
    "vote_count": 9836,
    "id": 299536,
    "video": false,
    "vote_average": 8.3,
    "title": "Avengers: Infinity War",
    "popularity": 107.962,
    "poster_path": "\/7WsyChQLEftFiDOVTGkv3hFpyyt.jpg",
    "original_language": "en",
    "original_title": "Avengers: Infinity War",
    "genre_ids": [12, 28, 14],
    "backdrop_path": "\/bOGkgRGdhrBYJSLpXaxhXVstddV.jpg",
    "adult": false,
    "overview": "As the Avengers and their allies have continued to protect the world from threats too large for any one hero to handle, a new danger has emerged from the cosmic shadows: Thanos. A despot of intergalactic infamy, his goal is to collect all six Infinity Stones, artifacts of unimaginable power, and use them to inflict his twisted will on all of reality. Everything the Avengers have fought for has led up to this moment - the fate of Earth and existence itself has never been more uncertain.",
    "release_date": "2018-04-27"
  }, {
    "vote_count": 154,
    "id": 480530,
    "video": false,
    "vote_average": 7.2,
    "title": "Creed II",
    "popularity": 104.096,
    "poster_path": "\/v3QyboWRoA4O9RbcsqH8tJMe8EB.jpg",
    "original_language": "en",
    "original_title": "Creed II",
    "genre_ids": [18, 28],
    "backdrop_path": "\/6JHYYbvoSuQ95ceGx8Oeg8zzAjg.jpg",
    "adult": false,
    "overview": "Follows Adonis Creed's life inside and outside of the ring as he deals with new found fame, issues with his family, and his continuing quest to become a champion.",
    "release_date": "2018-11-21"
  }, {
    "vote_count": 104,
    "id": 507569,
    "video": false,
    "vote_average": 6,
    "title": "The Seven Deadly Sins: Prisoners of the Sky",
    "popularity": 98.227,
    "poster_path": "\/r6pPUVUKU5eIpYj4oEzidk5ZibB.jpg",
    "original_language": "ja",
    "original_title": "劇場版 七つの大罪 天空の囚われ人",
    "genre_ids": [28, 12, 14, 16],
    "backdrop_path": "\/uKwOX7MtKlAaGeCQe6c4jc1vZpj.jpg",
    "adult": false,
    "overview": "Traveling in search of the rare ingredient, “sky fish”  Meliodas and Hawk arrive at a palace that floats above the clouds. The people there are busy preparing a ceremony, meant to protect their home from a ferocious beast that awakens once every 3,000 years. But before the ritual is complete, the Six Knights of Black—a Demon Clan army—removes the seal on the beast, threatening the lives of everyone in the Sky Palace.",
    "release_date": "2018-08-18"
  }, {
    "vote_count": 234,
    "id": 458594,
    "video": false,
    "vote_average": 6.3,
    "title": "Peppermint",
    "popularity": 95.157,
    "poster_path": "\/jrzxS0vcbzIIay1sdYm0rgI2QfJ.jpg",
    "original_language": "en",
    "original_title": "Peppermint",
    "genre_ids": [28, 53, 18],
    "backdrop_path": "\/9krZX6T4EEs5eFpXgSi8jZkN48O.jpg",
    "adult": false,
    "overview": "A grieving mother transforms herself into a vigilante following the murders of her husband and daughter, eluding the authorities to deliver her own personal brand of justice.",
    "release_date": "2018-09-07"
  }, {
    "vote_count": 2574,
    "id": 353081,
    "video": false,
    "vote_average": 7.2,
    "title": "Mission: Impossible - Fallout",
    "popularity": 94.771,
    "poster_path": "\/AkJQpZp9WoNdj7pLYSj1L0RcMMN.jpg",
    "original_language": "en",
    "original_title": "Mission: Impossible - Fallout",
    "genre_ids": [28, 53, 12],
    "backdrop_path": "\/aw4FOsWr2FY373nKSxbpNi3fz4F.jpg",
    "adult": false,
    "overview": "When an IMF mission ends badly, the world is faced with dire consequences. As Ethan Hunt takes it upon himself to fulfill his original briefing, the CIA begin to question his loyalty and his motives. The IMF team find themselves in a race against time, hunted by assassins while trying to prevent a global catastrophe.",
    "release_date": "2018-07-27"
  }, {
    "vote_count": 98,
    "id": 418970,
    "video": false,
    "vote_average": 6.4,
    "title": "Just to Be Sure",
    "popularity": 93.419,
    "poster_path": "\/naSY3Msahk7cOpVJDJQADfWSYkk.jpg",
    "original_language": "fr",
    "original_title": "Ôtez-moi d'un doute",
    "genre_ids": [18, 35],
    "backdrop_path": "\/4XUdDDnMCgjdy5rXmxEjo8n62BN.jpg",
    "adult": false,
    "overview": "Erwan, a strapping Breton who clears mines for a living, is shaken when he discovers that his father is not his father. Despite his affection for the man who raised him, he quietly sets out to find his biological father, and succeeds in locating Joseph, an endearing old codger he takes a liking to. Just when things look settled, another unexpected “bomb” hits Erwan in the form of Anna, an elusive nymph.",
    "release_date": "2017-09-06"
  }, {
    "vote_count": 1235,
    "id": 345887,
    "video": false,
    "vote_average": 6.2,
    "title": "The Equalizer 2",
    "popularity": 88.707,
    "poster_path": "\/cQvc9N6JiMVKqol3wcYrGshsIdZ.jpg",
    "original_language": "en",
    "original_title": "The Equalizer 2",
    "genre_ids": [53, 28, 80],
    "backdrop_path": "\/z7noaCJ4KtmhwHw7QcNtnMMo4Qy.jpg",
    "adult": false,
    "overview": "Robert McCall, who serves an unflinching justice for the exploited and oppressed, embarks on a relentless, globe-trotting quest for vengeance when a long-time girl friend is murdered.",
    "release_date": "2018-07-20"
  }, {
    "vote_count": 258,
    "id": 446894,
    "video": false,
    "vote_average": 6.6,
    "title": "Smallfoot",
    "popularity": 88.168,
    "poster_path": "\/zfaiO7QgpcvR8XDOMokWLRfKeTE.jpg",
    "original_language": "en",
    "original_title": "Smallfoot",
    "genre_ids": [35, 16, 10751, 12, 14],
    "backdrop_path": "\/2lHG8RhwEke0Sz6Tj0X0Wzoib39.jpg",
    "adult": false,
    "overview": "A bright young yeti finds something he thought didn't exist—a human. News of this “smallfoot” throws the simple yeti community into an uproar over what else might be out there in the big world beyond their snowy village.",
    "release_date": "2018-09-28"
  }, {
    "vote_count": 369,
    "id": 360920,
    "video": false,
    "vote_average": 6.2,
    "title": "The Grinch",
    "popularity": 85.417,
    "poster_path": "\/lCfKAAFyANPFn04xOPqazd8jwnc.jpg",
    "original_language": "en",
    "original_title": "The Grinch",
    "genre_ids": [16, 10751, 35, 14],
    "backdrop_path": "\/juc9wt7Eh2IarLL5S1yQ1a21O1A.jpg",
    "adult": false,
    "overview": "The Grinch hatches a scheme to ruin Christmas when the residents of Whoville plan their annual holiday celebration.",
    "release_date": "2018-11-09"
  }]
}