{
  "page": 1,
  "total_results": 128,
  "total_pages": 7,
  "results": [{
    "vote_count": 10799,
    "id": 10195,
    "video": false,
    "vote_average": 6.7,
    "title": "Thor",
    "popularity": 28.944,
    "poster_path": "\/cSBvRyle5z5lbWbbiQQwla0j5Fs.jpg",
    "original_language": "en",
    "original_title": "Thor",
    "genre_ids": [12, 14, 28],
    "backdrop_path": "\/LvmmDZxkTDqp0DX7mUo621ahdX.jpg",
    "adult": false,
    "overview": "Against his father Odin's will, The Mighty Thor - a powerful but arrogant warrior god - recklessly reignites an ancient war. Thor is cast down to Earth and forced to live among humans as punishment. Once here, Thor learns what it takes to be a true hero when the most dangerous villain of his world sends the darkest forces of Asgard to invade Earth.",
    "release_date": "2011-04-21"
  }, {
    "vote_count": 9201,
    "id": 284053,
    "video": false,
    "vote_average": 7.5,
    "title": "Thor: Ragnarok",
    "popularity": 36.904,
    "poster_path": "\/rzRwTcFvttcN1ZpX2xv4j3tSdJu.jpg",
    "original_language": "en",
    "original_title": "Thor: Ragnarok",
    "genre_ids": [28, 12, 35, 14, 878],
    "backdrop_path": "\/r9DmhMfsndC8QtrXKyad3KCRdcC.jpg",
    "adult": false,
    "overview": "Thor is on the other side of the universe and finds himself in a race against time to get back to Asgard to stop Ragnarok, the prophecy of destruction to his homeworld and the end of Asgardian civilization, at the hands of an all-powerful new threat, the ruthless Hela.",
    "release_date": "2017-10-25"
  }, {
    "vote_count": 8493,
    "id": 76338,
    "video": false,
    "vote_average": 6.7,
    "title": "Thor: The Dark World",
    "popularity": 24.47,
    "poster_path": "\/bnX5PqAdQZRXSw3aX3DutDcdso5.jpg",
    "original_language": "en",
    "original_title": "Thor: The Dark World",
    "genre_ids": [28, 12, 14],
    "backdrop_path": "\/3FweBee0xZoY77uO1bhUOlQorNH.jpg",
    "adult": false,
    "overview": "Thor fights to restore order across the cosmos… but an ancient race led by the vengeful Malekith returns to plunge the universe back into darkness. Faced with an enemy that even Odin and Asgard cannot withstand, Thor must embark on his most perilous and personal journey yet, one that will reunite him with Jane Foster and force him to sacrifice everything to save us all.",
    "release_date": "2013-10-29"
  }, {
    "vote_count": 223,
    "id": 413279,
    "video": false,
    "vote_average": 7.7,
    "title": "Team Thor",
    "popularity": 5.909,
    "poster_path": "\/aRslMOklOA76irVDpsLdKDRMUxZ.jpg",
    "original_language": "en",
    "original_title": "Team Thor",
    "genre_ids": [35, 14, 878],
    "backdrop_path": "\/26X47ySirNiG3HyKjDWgjkT1Njl.jpg",
    "adult": false,
    "overview": "Discover what Thor was up to during the events of Captain America: Civil War.",
    "release_date": "2016-08-28"
  }, {
    "vote_count": 97,
    "id": 441829,
    "video": false,
    "vote_average": 7.3,
    "title": "Team Thor: Part 2",
    "popularity": 7.175,
    "poster_path": "\/hBByhGBRAuaDi5ZIAKrEYmPkUXT.jpg",
    "original_language": "en",
    "original_title": "Team Thor: Part 2",
    "genre_ids": [878, 35, 14, 99],
    "backdrop_path": "\/pgw1LdRyanwJ7sM6DWqKuPDqxVX.jpg",
    "adult": false,
    "overview": "A continuation of the documentary spoof of what Thor and his roommate Darryl were up to during the events of \"Captain America: Civil War\". While Cap and Iron Man duke it out, Thor tries to pay Darryl his rent in Asgardian coins.",
    "release_date": "2017-02-14"
  }, {
    "vote_count": 80,
    "id": 101907,
    "video": false,
    "vote_average": 6.2,
    "title": "Hulk vs. Thor",
    "popularity": 5.988,
    "poster_path": "\/5kDZS7ChCCXloWsNUctpS4sMal9.jpg",
    "original_language": "en",
    "original_title": "Hulk vs. Thor",
    "genre_ids": [28, 16, 14, 878],
    "backdrop_path": "\/iHcvBqmrE0VK67IDpki8vWgtOxH.jpg",
    "adult": false,
    "overview": "For ages, Odin has protected his kingdom of Asgard. But every winter, the All-Father must rest and regain his strength for one week. During this time, all of Asgard's foes (including trolls, giants, dark elves, and demons) try to claim the realm for their own, but they are always stopped by Odin's son, the mighty Thor, albeit with the loss of many brave Asgardian warriors. Loki, god of mischief, has kidnapped Dr. Bruce Banner and brought him to Asgard with the help of Amora, once Thor's lover, now the supervillain known as the Enchantress. Loki makes Banner angry and he changes into the Hulk. The Enchantress then casts a spell over the Hulk which separates Banner from his monstrous alter-ego and grants Loki control over the Hulk's body.",
    "release_date": "2009-01-27"
  }, {
    "vote_count": 25,
    "id": 63736,
    "video": false,
    "vote_average": 2.4,
    "title": "Almighty Thor",
    "popularity": 2.074,
    "poster_path": "\/gh8WcgcrIWDQeFbRawuFiRGvqvu.jpg",
    "original_language": "en",
    "original_title": "Almighty Thor",
    "genre_ids": [28, 12, 14, 878],
    "backdrop_path": "\/8OUV8xYpycEc6dChZDmPUx7vmx6.jpg",
    "adult": false,
    "overview": "When the demon god Loki destroys the fortress of Valhalla and steals the Hammer of Invincibility, only the young hero Thor can protect Earth from armageddon.",
    "release_date": "2011-05-07"
  }, {
    "vote_count": 22,
    "id": 106631,
    "video": false,
    "vote_average": 5.5,
    "title": "Legends of Valhalla: Thor",
    "popularity": 2.364,
    "poster_path": "\/9aWnlKIb6ODpkNJ6GJIjwx1u3rS.jpg",
    "original_language": "en",
    "original_title": "Hetjur Valhallar - Þór",
    "genre_ids": [16, 12, 35, 10751, 14],
    "backdrop_path": "\/bcLk7JMhOK2wPkGl1lUbamKNSRJ.jpg",
    "adult": false,
    "overview": "An over confident teen with a magical weapon and a handful of imperfect gods join forces against an evil queen and her army of giants",
    "release_date": "2011-10-14"
  }, {
    "vote_count": 71,
    "id": 63686,
    "video": false,
    "vote_average": 6.3,
    "title": "Thor: Tales of Asgard",
    "popularity": 1.83,
    "poster_path": "\/jmszqWpP6JehbetACrTwo0GdGcT.jpg",
    "original_language": "en",
    "original_title": "Thor: Tales of Asgard",
    "genre_ids": [12, 16, 28],
    "backdrop_path": "\/sYtby8VBJnEBG6X9dH3CVIgzQO2.jpg",
    "adult": false,
    "overview": "Hungry for adventure, Thor secretly embarks on the journey of a lifetime, joined by his loyal brother Loki, whose budding sorcery equips him with just enough magic to conjure up trouble, along with the Warriors Three - a band of boastful travelers reluctant to set sail on any adventure that might actually be dangerous. But what starts out as a harmless treasure hunt quickly turns deadly, and Thor must now prove himself worthy of the destiny he covets by saving Asgard itself.",
    "release_date": "2011-05-16"
  }, {
    "vote_count": 7,
    "id": 325758,
    "video": false,
    "vote_average": 6.9,
    "title": "I Am Thor",
    "popularity": 1.4,
    "poster_path": "\/7VkHEgGoGnsCQLtlH5BRykH56Fh.jpg",
    "original_language": "en",
    "original_title": "I Am Thor",
    "genre_ids": [99],
    "backdrop_path": null,
    "adult": false,
    "overview": "John Mikl Thor was a bodybuilding, steel bending, brick smashing rock star in the 70's &amp; 80's whose band, Thor, never quite made it big. Years later he attempts a comeback that nearly kills him.",
    "release_date": "2015-11-20"
  }, {
    "vote_count": 70,
    "id": 394355,
    "video": true,
    "vote_average": 6.5,
    "title": "Hulk Vs.",
    "popularity": 4.118,
    "poster_path": "\/zTpk3zBme8LEHqocGb8PkYdGjkr.jpg",
    "original_language": "en",
    "original_title": "Hulk Vs.",
    "genre_ids": [878, 16, 28, 12, 14],
    "backdrop_path": "\/svlnTWj4DS21Xwe9ieb2Q5islNt.jpg",
    "adult": false,
    "overview": "Two stories featuring Marvel's anti-hero The Incredible Hulk and his encounters with the X-Man Wolverine and the god known as Thor.",
    "release_date": "2009-01-13"
  }, {
    "vote_count": 10,
    "id": 183154,
    "video": false,
    "vote_average": 3.5,
    "title": "Thor the Conqueror",
    "popularity": 0.96,
    "poster_path": "\/uDU3C5eJ5HiZAUks4rEzPo0Y3gi.jpg",
    "original_language": "it",
    "original_title": "Thor il conquistatore",
    "genre_ids": [14, 12],
    "backdrop_path": "\/fPj87uQhvNDjUog3yyvmn9Nx1Si.jpg",
    "adult": false,
    "overview": "After both his parents are brutally murdered by his fathers rival Gnut and his men the new born Thor is placed in hiding by the physical embodiment of the god Teisha.  Raised in secret under the guidance of Teisha, Thor comes to maturity and goes on a quest to avenge the death of his parents and return peace to his lands, in the process he discovers a woman to take as his wife, finds and uncovers his fathers sword and masters the art of combat, all under the ever watchful eye of the amorphous Teisha.",
    "release_date": "1983-02-05"
  }, {
    "vote_count": 126,
    "id": 76535,
    "video": false,
    "vote_average": 7.1,
    "title": "Marvel One-Shot: A Funny Thing Happened on the Way to Thor's Hammer",
    "popularity": 6.577,
    "poster_path": "\/5uGaqAnt0RQ87uKy8UlRDNrL2jY.jpg",
    "original_language": "en",
    "original_title": "Marvel One-Shot: A Funny Thing Happened on the Way to Thor's Hammer",
    "genre_ids": [878, 14],
    "backdrop_path": "\/wdMq7F5Cr1DGg8ioNPZvWxqQer4.jpg",
    "adult": false,
    "overview": "Agent Coulson stops at a convenience store and deals with a coincidental robbery during his visit.",
    "release_date": "2011-10-25"
  }, {
    "vote_count": 3,
    "id": 248618,
    "video": false,
    "vote_average": 2.2,
    "title": "A Viking Saga: Son of Thor",
    "popularity": 1.4,
    "poster_path": "\/lI73cWarYbDQujTOS6Qy1DO947a.jpg",
    "original_language": "en",
    "original_title": "A Viking Saga: Son of Thor",
    "genre_ids": [12, 18],
    "backdrop_path": "\/wrtgj7PEboT3NvrFGePnm8tXlKn.jpg",
    "adult": false,
    "overview": "Drama set in the viking age, Helgi witnesses the destruction of his village and narrowly escapes to his uncle Rurik who raises him like his son. Many years later he meets the people responsible for his parents death and someone he never expected to see again.",
    "release_date": "2008-04-12"
  }, {
    "vote_count": 243,
    "id": 397722,
    "video": false,
    "vote_average": 6.4,
    "title": "Thoroughbreds",
    "popularity": 10.459,
    "poster_path": "\/pIxZzTfITqBpZxbIGsV01DcoHsT.jpg",
    "original_language": "en",
    "original_title": "Thoroughbreds",
    "genre_ids": [18, 53],
    "backdrop_path": "\/iKSONLvFh10sWSFBrixGLdgvh3V.jpg",
    "adult": false,
    "overview": "Two teenage girls in suburban Connecticut rekindle their unlikely friendship after years of growing apart. In the process, they learn that neither is what she seems to be, and that a murder might solve both of their problems.",
    "release_date": "2018-03-09"
  }, {
    "vote_count": 7,
    "id": 346256,
    "video": false,
    "vote_average": 5.6,
    "title": "God of Thunder",
    "popularity": 1.333,
    "poster_path": "\/AhFgVekCeW5JURvLhAhuFn0nYsN.jpg",
    "original_language": "en",
    "original_title": "God of Thunder",
    "genre_ids": [878],
    "backdrop_path": "\/AmLS8npHoqErTt8Aws7zYn9HOE3.jpg",
    "adult": false,
    "overview": "Defeated on the battlefield by Thor, Loki is brought to Odin for justice. But by using his guile and trickery, Loki escapes to Earth. There he will conquer mankind and raise an even larger army to use in his quest for domination throughout the Nine Realms.  Enraged by devastation of his home, Thor pursues Loki, but in the journey, he is rendered defenseless, awakening on Earth without his mighty hammer, or his memory. Alone and disoriented, Thor is besieged by Loki’s followers, hell-bent on stopping him…at any cost. Enlisting the help of a female human companion, Thor fights his way North, in search of his mythical weapon. Finding his hammer, Thor’s identity and prowess are restored and he must now prepare himself for a final climactic battle with Loki, to prevent the overthrow of the universe.",
    "release_date": "2015-05-06"
  }, {
    "vote_count": 15,
    "id": 31533,
    "video": false,
    "vote_average": 3.2,
    "title": "Hammer of the Gods",
    "popularity": 0.916,
    "poster_path": "\/jvBrRJwjQCEIH1lFEJLTBw01cOe.jpg",
    "original_language": "en",
    "original_title": "Hammer of the Gods",
    "genre_ids": [10770, 28, 12, 18, 14],
    "backdrop_path": "\/gmCIyYZdwP9R3QuXH3bTfTjiSo6.jpg",
    "adult": false,
    "overview": "Thor along with his friends travels to mysterious island seeking glory and fame. Upon arriving they encounter strange creatures and they start searching the island for answers. Meanwhile Thor keeps seeing visions for a mighty warrior and a big hammer and Freyja tells him that his visions are clues so they start searching for the hammer.",
    "release_date": "2009-02-01"
  }, {
    "vote_count": 2,
    "id": 231120,
    "video": false,
    "vote_average": 6.5,
    "title": "Berlin, Hallesches Thor",
    "popularity": 0.6,
    "poster_path": "\/5lDGYHgVaVhZIGeWr7ciIc3hUYI.jpg",
    "original_language": "fr",
    "original_title": "Berlin, Hallesches Thor",
    "genre_ids": [99],
    "backdrop_path": null,
    "adult": false,
    "overview": "A street scene in Berlin near Hallesches Tor.",
    "release_date": "1896-01-01"
  }, {
    "vote_count": 0,
    "id": 448361,
    "video": true,
    "vote_average": 0,
    "title": "Thor: Hammer Time",
    "popularity": 0.6,
    "poster_path": "\/qHTdytIatZlT4Dzgb0oZDnukf4y.jpg",
    "original_language": "en",
    "original_title": "Thor: Hammer Time",
    "genre_ids": [],
    "backdrop_path": null,
    "adult": false,
    "overview": "Audiences are introduced to the history and powers of the difficult-to-pronounce Mjolnir hammer. The piece then examines the importance of getting the design for the movie version absolutely correct.",
    "release_date": "2011-09-13"
  }, {
    "vote_count": 4,
    "id": 448363,
    "video": true,
    "vote_average": 8,
    "title": "Thor: Assembling the Troupe",
    "popularity": 0.6,
    "poster_path": "\/7tgdZEWljiTokgayEmL4SFQuAGu.jpg",
    "original_language": "en",
    "original_title": "Thor: Assembling the Troupe",
    "genre_ids": [],
    "backdrop_path": null,
    "adult": false,
    "overview": "A short piece that looks at the casting and subsequent work of Chris Hemsworth, Natalie Portman, and Anthony Hopkins.",
    "release_date": "2011-09-13"
  }]
}