{
  "page": 1,
  "total_results": 228,
  "total_pages": 12,
  "results": [{
    "original_name": "Vikings",
    "genre_ids": [18, 10759],
    "name": "Vikings",
    "popularity": 176.429,
    "origin_country": ["CA"],
    "vote_count": 1376,
    "first_air_date": "2013-03-03",
    "backdrop_path": "\/A30ZqEoDbchvE7mCZcSp6TEwB1Q.jpg",
    "original_language": "en",
    "id": 44217,
    "vote_average": 7.5,
    "overview": "Vikings follows the adventures of Ragnar Lothbrok, the greatest hero of his age. The series tells the sagas of Ragnar's band of Viking brothers and his family, as he rises to become King of the Viking tribes. As well as being a fearless warrior, Ragnar embodies the Norse traditions of devotion to the gods. Legend has it that he was a direct descendant of Odin, the god of war and warriors.",
    "poster_path": "\/94gP9uXNdbypwCLORjeurlad15Z.jpg"
  }, {
    "original_name": "Supernatural",
    "genre_ids": [18, 9648, 10765],
    "name": "Supernatural",
    "popularity": 100.233,
    "origin_country": ["US"],
    "vote_count": 1635,
    "first_air_date": "2005-09-13",
    "backdrop_path": "\/o9OKe3M06QMLOzTl3l6GStYtnE9.jpg",
    "original_language": "en",
    "id": 1622,
    "vote_average": 7.2,
    "overview": "When they were boys, Sam and Dean Winchester lost their mother to a mysterious and demonic supernatural force. Subsequently, their father raised them to be soldiers. He taught them about the paranormal evil that lives in the dark corners and on the back roads of America ... and he taught them how to kill it. Now, the Winchester brothers crisscross the country in their '67 Chevy Impala, battling every kind of supernatural threat they encounter along the way. ",
    "poster_path": "\/3iFm6Kz7iYoFaEcj4fLyZHAmTQA.jpg"
  }, {
    "original_name": "Criminal Minds",
    "genre_ids": [80, 18, 9648],
    "name": "Criminal Minds",
    "popularity": 51.642,
    "origin_country": ["US"],
    "vote_count": 520,
    "first_air_date": "2005-09-22",
    "backdrop_path": "\/mzyLxbwy5jOveyfsbC1OWGp78NV.jpg",
    "original_language": "en",
    "id": 4057,
    "vote_average": 7.1,
    "overview": "An elite team of FBI profilers analyze the country's most twisted criminal minds, anticipating their next moves before they strike again. The Behavioral Analysis Unit's most experienced agent is David Rossi, a founding member of the BAU who returns to help the team solve new cases.",
    "poster_path": "\/7TCwgX7oQKxcWYEhSPRmaHe6ULN.jpg"
  }, {
    "original_name": "Ray Donovan",
    "genre_ids": [18],
    "name": "Ray Donovan",
    "popularity": 46.43,
    "origin_country": ["US"],
    "vote_count": 330,
    "first_air_date": "2013-06-30",
    "backdrop_path": "\/ijX8tWeMBMPwEPKNpSavyd9334r.jpg",
    "original_language": "en",
    "id": 1423,
    "vote_average": 7.5,
    "overview": "Set in the sprawling mecca of the rich and famous, Ray Donovan does the dirty work for LA's top power players, and makes their problems disappear. His father's unexpected release from prison sets off a chain of events that shakes the Donovan family to its core.",
    "poster_path": "\/cwJ6nLNvX62By0yoLYWFhRelPkF.jpg"
  }, {
    "original_name": "Black Lightning",
    "genre_ids": [18, 10759, 10765],
    "name": "Black Lightning",
    "popularity": 44.473,
    "origin_country": ["US"],
    "vote_count": 173,
    "first_air_date": "2018-01-16",
    "backdrop_path": "\/h3wTKlnA2ABrkQRm3WNk3mOaTjO.jpg",
    "original_language": "en",
    "id": 71663,
    "vote_average": 6,
    "overview": "Jefferson Pierce is a man wrestling with a secret. As the father of two daughters and principal of a charter high school that also serves as a safe haven for young people in a New Orleans neighborhood overrun by gang violence, he is a hero to his community.",
    "poster_path": "\/tM3i08Xs5I1bg5DB6sa9H0Zpt9e.jpg"
  }, {
    "original_name": "Outlander",
    "genre_ids": [12, 18, 14, 10749],
    "name": "Outlander",
    "popularity": 41.617,
    "origin_country": ["US"],
    "vote_count": 409,
    "first_air_date": "2014-08-09",
    "backdrop_path": "\/qutOe29dCGmT2JUlLPCqlzaQIo.jpg",
    "original_language": "en",
    "id": 56570,
    "vote_average": 7.3,
    "overview": "The story of Claire Randall, a married combat nurse from 1945 who is mysteriously swept back in time to 1743, where she is immediately thrown into an unknown world where her life is threatened. When she is forced to marry Jamie, a chivalrous and romantic young Scottish warrior, a passionate affair is ignited that tears Claire's heart between two vastly different men in two irreconcilable lives.",
    "poster_path": "\/ioQ0o7dOU6AD8gKIHHPX0czqgSw.jpg"
  }, {
    "original_name": "仮面ライダ",
    "genre_ids": [18, 10759, 10765],
    "name": "Kamen Rider",
    "popularity": 37.919,
    "origin_country": ["JP"],
    "vote_count": 20,
    "first_air_date": "1971-04-03",
    "backdrop_path": "\/A6euKtibc99zyWNy3TPbXA31h1l.jpg",
    "original_language": "ja",
    "id": 2661,
    "vote_average": 6.1,
    "overview": "A Japanese anthology series centered around a man who transforms into a bug-themed superhero.",
    "poster_path": "\/9nlyhxpszQ34joVXMM2PjXvyBvn.jpg"
  }, {
    "original_name": "Travelers",
    "genre_ids": [18, 10765],
    "name": "Travelers",
    "popularity": 37.609,
    "origin_country": ["CA"],
    "vote_count": 175,
    "first_air_date": "2016-10-17",
    "backdrop_path": "\/yUDJ1r0UQdhb904povev5apjTVh.jpg",
    "original_language": "en",
    "id": 67683,
    "vote_average": 7.4,
    "overview": "Hundreds of years from now, the last surviving humans discover the means of sending consciousness back through time, directly into people in the 21st century. These \"travelers\" assume the lives of seemingly random people, while secretly working as teams to perform missions in order to save humanity from a terrible future.",
    "poster_path": "\/aUVeyeyTrQrSFuUkqLCT8FtV7pp.jpg"
  }, {
    "original_name": "Titans",
    "genre_ids": [18, 10759, 10765],
    "name": "Titans",
    "popularity": 33.607,
    "origin_country": ["US"],
    "vote_count": 46,
    "first_air_date": "2018-10-12",
    "backdrop_path": "\/9foO1E8sliKN2dvtMOEwwQgynlW.jpg",
    "original_language": "en",
    "id": 75450,
    "vote_average": 6.5,
    "overview": "A team of young superheroes led by Nightwing (formerly Batman's first Robin) form to combat evil and other perils.",
    "poster_path": "\/oCK6fykCZUQjTJG4IDhfWCxcXqG.jpg"
  }, {
    "original_name": "Nightflyers",
    "genre_ids": [10765],
    "name": "Nightflyers",
    "popularity": 29.77,
    "origin_country": ["US"],
    "vote_count": 9,
    "first_air_date": "2018-12-02",
    "backdrop_path": "\/561Cn8lF0zebvTZFhxnsYsq1bhL.jpg",
    "original_language": "en",
    "id": 78183,
    "vote_average": 6.2,
    "overview": "In the year 2093, a team of scientists aboard the Nightflyer, the most advanced ship ever built, embarks on a journey to find other life forms. Their mission takes them to the edge of the solar system, and to the edge of insanity, as they realize true horror isn't waiting for them in outer space—it's already on their ship.",
    "poster_path": "\/faQ5NoMN7q72itGYkSTpUPsp3JN.jpg"
  }, {
    "original_name": "NCIS: Los Angeles",
    "genre_ids": [80, 18, 9648, 10759],
    "name": "NCIS: Los Angeles",
    "popularity": 29.677,
    "origin_country": ["US"],
    "vote_count": 281,
    "first_air_date": "2009-09-22",
    "backdrop_path": "\/dQ8xZxtZtZTq74RjTycO1RKoqi0.jpg",
    "original_language": "en",
    "id": 17610,
    "vote_average": 6.5,
    "overview": "The exploits of the Los Angeles–based Office of Special Projects (OSP), an elite division of the Naval Criminal Investigative Service that specializes in undercover assignments.",
    "poster_path": "\/n00Z61xNqk84AY9oT7wTdHuYZWn.jpg"
  }, {
    "original_name": "Voltron: Legendary Defender",
    "genre_ids": [16, 10759, 10765],
    "name": "Voltron: Legendary Defender",
    "popularity": 29.098,
    "origin_country": [],
    "vote_count": 24,
    "first_air_date": "2016-06-10",
    "backdrop_path": "\/nmmwHeMXQFkIXr3Xz3qwH8U4KNW.jpg",
    "original_language": "en",
    "id": 66558,
    "vote_average": 7.7,
    "overview": "Five unlikely teenage heroes and their flying robot lions unite to form the megapowerful Voltron and defend the universe from evil.",
    "poster_path": "\/f65b5KOjnON7cIXtL2w4iTdWSk4.jpg"
  }, {
    "original_name": "Fresh Off the Boat",
    "genre_ids": [35],
    "name": "Fresh Off the Boat",
    "popularity": 28.771,
    "origin_country": ["US"],
    "vote_count": 89,
    "first_air_date": "2015-02-04",
    "backdrop_path": "\/iuZSSXsX1tcmWhT6fkm5zNZCHqX.jpg",
    "original_language": "en",
    "id": 61692,
    "vote_average": 6.9,
    "overview": "A '90s-set single-camera comedy about a hip-hop-loving Asian kid growing up in suburban Orlando, being raised by an immigrant father obsessed with all things American and an immigrant mother often bewildered by white culture.",
    "poster_path": "\/o8ekdtv98EnrymVLw3VJ2WoFBoM.jpg"
  }, {
    "original_name": "Chilling Adventures of Sabrina",
    "genre_ids": [18, 9648, 10765],
    "name": "Chilling Adventures of Sabrina",
    "popularity": 26.559,
    "origin_country": ["US"],
    "vote_count": 48,
    "first_air_date": "2018-10-26",
    "backdrop_path": "\/8AdmUPTyidDebwIuakqkSt6u1II.jpg",
    "original_language": "en",
    "id": 79242,
    "vote_average": 7.1,
    "overview": "As her 16th birthday nears, Sabrina must choose between the witch world of her family and the human world of her friends. Based on the Archie comic.",
    "poster_path": "\/yxMpoHO0CXP5o9gB7IfsciilQS4.jpg"
  }, {
    "original_name": "EastEnders",
    "genre_ids": [18, 10766],
    "name": "EastEnders",
    "popularity": 23.786,
    "origin_country": ["GB"],
    "vote_count": 138,
    "first_air_date": "1985-02-19",
    "backdrop_path": "\/27ZEH4Y8vQEyQYA8IVHCWrvkHYX.jpg",
    "original_language": "en",
    "id": 1871,
    "vote_average": 3.6,
    "overview": "The everyday lives of working-class residents of Albert Square, a traditional Victorian square of terrace houses surrounding a park in the East End of London's Walford borough.",
    "poster_path": "\/mcymz5PLgcUzQEQPcV2gWXMlGer.jpg"
  }, {
    "original_name": "Die Rosenheim-Cops",
    "id": 41149,
    "name": "The Rosenheim Cops",
    "popularity": 23.087,
    "vote_count": 3,
    "vote_average": 5.5,
    "first_air_date": "2002-01-09",
    "poster_path": "\/kAhi0xY6gIEMvHtmChC44pBwOWG.jpg",
    "genre_ids": [80],
    "original_language": "de",
    "backdrop_path": "\/zXehUaafubzL2WKdJ4FD2OHtzFC.jpg",
    "overview": "",
    "origin_country": ["DE"]
  }, {
    "original_name": "Counterpart",
    "genre_ids": [18, 878],
    "name": "Counterpart",
    "popularity": 22.773,
    "origin_country": ["US"],
    "vote_count": 58,
    "first_air_date": "2017-12-10",
    "backdrop_path": "\/b92ZXORrpljn3YRAXOrURhVO0JV.jpg",
    "original_language": "en",
    "id": 63646,
    "vote_average": 7.2,
    "overview": "Howard Silk is a lowly cog in a bureaucratic UN agency who is turning the last corner of a life filled with regret when he discovers the agency he works for is guarding a secret: a crossing to a parallel dimension.",
    "poster_path": "\/vBIc9SkfZUUUUYD5b9srR5NpX5o.jpg"
  }, {
    "original_name": "복수가 돌아왔다",
    "genre_ids": [35, 18],
    "name": "My Strange Hero",
    "popularity": 21.832,
    "origin_country": ["KR"],
    "vote_count": 3,
    "first_air_date": "2018-12-10",
    "backdrop_path": "\/mjMkTMbWxma8A2Z9OFhTbvetOLO.jpg",
    "original_language": "ko",
    "id": 84464,
    "vote_average": 6,
    "overview": "When Kang Bok-Soo was a high school student, he was falsely accused of committing violence and kicked out of school. This was caused by his first love Son Soo-Jung and a male student Oh Se-Ho. Kang Bok-Soo is a now an adult, but his life has not gone smoothly. To get revenge on Son Soo-Jung and Oh Se-Ho, he returns to the same high school as a student. The environment at the school has changed and Kang Bok-Soo gets involved in unexpected cases.",
    "poster_path": "\/p8Uzpksp6TRKwyn6L6EtZd4fJcx.jpg"
  }, {
    "original_name": "Legacies",
    "genre_ids": [18, 9648, 10765],
    "name": "Legacies",
    "popularity": 20.336,
    "origin_country": ["US"],
    "vote_count": 27,
    "first_air_date": "2018-10-25",
    "backdrop_path": "\/tIYb76SgqjUJ6XLFwBrk4gvGNtn.jpg",
    "original_language": "en",
    "id": 79460,
    "vote_average": 7,
    "overview": "In a place where young witches, vampires, and werewolves are nurtured to be their best selves in spite of their worst impulses, Klaus Mikaelson’s daughter, 17-year-old Hope Mikaelson, Alaric Saltzman’s twins, Lizzie and Josie Saltzman, among others, come of age into heroes and villains at The Salvatore School for the Young and Gifted.",
    "poster_path": "\/pwvKOtTpbMacI463EDfyKtfn4Kd.jpg"
  }, {
    "original_name": "Fortitude",
    "genre_ids": [80, 18, 9648, 10765],
    "name": "Fortitude",
    "popularity": 20.084,
    "origin_country": ["GB"],
    "vote_count": 102,
    "first_air_date": "2015-01-29",
    "backdrop_path": "\/oCbvD8RmGofETLLJe7Ky8lennwt.jpg",
    "original_language": "en",
    "id": 61335,
    "vote_average": 7,
    "overview": "Fortitude is a place like nowhere else. Although surrounded by the savage beauty of the Arctic landscape, Fortitude is one of the safest towns on earth. There has never been a violent crime here. Until now. In such a close-knit community a murder touches everyone and the unsettling, mysterious horror of this crime threatens the future of the town itself.",
    "poster_path": "\/bg4Hdp1tzztzXoLeUVMvrwbdvWf.jpg"
  }]
}